<?xml version="1.0" encoding="UTF-8" standalone="no"?>
<svg
   xmlns:dc="http://purl.org/dc/elements/1.1/"
   xmlns:cc="http://creativecommons.org/ns#"
   xmlns:rdf="http://www.w3.org/1999/02/22-rdf-syntax-ns#"
   xmlns:svg="http://www.w3.org/2000/svg"
   xmlns="http://www.w3.org/2000/svg"
   xmlns:xlink="http://www.w3.org/1999/xlink"
   xmlns:sodipodi="http://sodipodi.sourceforge.net/DTD/sodipodi-0.dtd"
   xmlns:inkscape="http://www.inkscape.org/namespaces/inkscape"
   width="1024"
   height="1024"
   viewBox="0 0 1024 1024"
   version="1.1"
   id="svg1043"
   sodipodi:docname="shipFinSmallUV.svg"
   inkscape:export-filename="shipFinSmallUV.png"
   inkscape:export-xdpi="96.000008"
   inkscape:export-ydpi="96.000008"
   inkscape:version="1.0 (4035a4fb49, 2020-05-01)">
  <metadata
     id="metadata1049">
    <rdf:RDF>
      <cc:Work
         rdf:about="">
        <dc:format>image/svg+xml</dc:format>
        <dc:type
           rdf:resource="http://purl.org/dc/dcmitype/StillImage" />
      </cc:Work>
    </rdf:RDF>
  </metadata>
  <defs
     id="defs1047">
    <marker
       inkscape:isstock="true"
       style="overflow:visible"
       id="DotM"
       refX="0.0"
       refY="0.0"
       orient="auto"
       inkscape:stockid="DotM">
      <path
         transform="scale(0.4) translate(7.4, 1)"
         style="fill-rule:evenodd;stroke:#000000;stroke-width:1pt;stroke-opacity:1;fill:#000000;fill-opacity:1"
         d="M -2.5,-1.0 C -2.5,1.7600000 -4.7400000,4.0 -7.5,4.0 C -10.260000,4.0 -12.5,1.7600000 -12.5,-1.0 C -12.5,-3.7600000 -10.260000,-6.0 -7.5,-6.0 C -4.7400000,-6.0 -2.5,-3.7600000 -2.5,-1.0 z "
         id="path1105" />
    </marker>
    <linearGradient
       id="linearGradient2069"
       inkscape:collect="always">
      <stop
         id="stop2063"
         offset="0"
         style="stop-color:#ededed;stop-opacity:1" />
      <stop
         style="stop-color:#f2f2f2;stop-opacity:0.49803922;"
         offset="0.5"
         id="stop2065" />
      <stop
         id="stop2067"
         offset="1"
         style="stop-color:#494949;stop-opacity:1" />
    </linearGradient>
    <filter
       inkscape:collect="always"
       style="color-interpolation-filters:sRGB"
       id="filter1580"
       x="-0.01753227"
       width="1.0350645"
       y="-0.017091618"
       height="1.0341832">
      <feGaussianBlur
         inkscape:collect="always"
         stdDeviation="4.4775502"
         id="feGaussianBlur1582" />
    </filter>
    <filter
       inkscape:collect="always"
       style="color-interpolation-filters:sRGB"
       id="filter1584"
       x="-0.017532269"
       width="1.0350645"
       y="-0.017091617"
       height="1.0341832">
      <feGaussianBlur
         inkscape:collect="always"
         stdDeviation="4.4775502"
         id="feGaussianBlur1586" />
    </filter>
    <filter
       inkscape:collect="always"
       style="color-interpolation-filters:sRGB"
       id="filter1626"
       x="-0.02288442"
       width="1.0457688"
       y="-1.3099073"
       height="3.6198146">
      <feGaussianBlur
         inkscape:collect="always"
         stdDeviation="4.7258013"
         id="feGaussianBlur1628" />
    </filter>
    <filter
       inkscape:collect="always"
       style="color-interpolation-filters:sRGB"
       id="filter1630"
       x="-0.02288442"
       width="1.0457688"
       y="-1.3099073"
       height="3.6198146">
      <feGaussianBlur
         inkscape:collect="always"
         stdDeviation="4.7258013"
         id="feGaussianBlur1632" />
    </filter>
    <filter
       inkscape:collect="always"
       style="color-interpolation-filters:sRGB"
       id="filter1852"
       x="-1.2629474"
       width="3.5258948"
       y="-0.14575174"
       height="1.2915035">
      <feGaussianBlur
         inkscape:collect="always"
         stdDeviation="2.9612788"
         id="feGaussianBlur1854" />
    </filter>
    <filter
       inkscape:collect="always"
       style="color-interpolation-filters:sRGB"
       id="filter1856"
       x="-1.0978926"
       width="3.1957851"
       y="-0.2576634"
       height="1.5153268">
      <feGaussianBlur
         inkscape:collect="always"
         stdDeviation="2.9612788"
         id="feGaussianBlur1858" />
    </filter>
    <filter
       inkscape:collect="always"
       style="color-interpolation-filters:sRGB"
       id="filter1936"
       x="-0.033876345"
       width="1.0677527"
       y="-0.17021719"
       height="1.3404344">
      <feGaussianBlur
         inkscape:collect="always"
         stdDeviation="3.5216732"
         id="feGaussianBlur1938" />
    </filter>
    <filter
       inkscape:collect="always"
       style="color-interpolation-filters:sRGB"
       id="filter1948"
       x="-0.010592559"
       width="1.0211851"
       y="-0.1366239"
       height="1.2732478">
      <feGaussianBlur
         inkscape:collect="always"
         stdDeviation="2.8597875"
         id="feGaussianBlur1950" />
    </filter>
    <filter
       inkscape:collect="always"
       style="color-interpolation-filters:sRGB"
       id="filter1952"
       x="-0.010222328"
       width="1.0204447"
       y="-0.25639832"
       height="1.5127966">
      <feGaussianBlur
         inkscape:collect="always"
         stdDeviation="2.9815162"
         id="feGaussianBlur1954" />
    </filter>
    <filter
       inkscape:collect="always"
       style="color-interpolation-filters:sRGB"
       id="filter1973"
       x="-0.03072"
       width="1.06144"
       y="-0.03072"
       height="1.06144">
      <feGaussianBlur
         inkscape:collect="always"
         stdDeviation="2.56"
         id="feGaussianBlur1975" />
    </filter>
    <radialGradient
       inkscape:collect="always"
       xlink:href="#linearGradient2069"
       id="radialGradient1993"
       cx="1290.8309"
       cy="403.08481"
       fx="1290.8309"
       fy="403.08481"
       r="8.8482943"
       gradientUnits="userSpaceOnUse"
       gradientTransform="translate(-6.0390333,-6.9818341)" />
    <radialGradient
       gradientTransform="translate(147.80997,-6.9818285)"
       gradientUnits="userSpaceOnUse"
       r="8.8482943"
       fy="403.08481"
       fx="1290.8309"
       cy="403.08481"
       cx="1290.8309"
       id="radialGradient1993-1"
       xlink:href="#linearGradient2069"
       inkscape:collect="always" />
    <radialGradient
       gradientTransform="translate(147.80999,146.8671)"
       gradientUnits="userSpaceOnUse"
       r="8.8482943"
       fy="403.08481"
       fx="1290.8309"
       cy="403.08481"
       cx="1290.8309"
       id="radialGradient1993-4"
       xlink:href="#linearGradient2069"
       inkscape:collect="always" />
    <radialGradient
       gradientTransform="translate(-6.0389929,146.86707)"
       gradientUnits="userSpaceOnUse"
       r="8.8482943"
       fy="403.08481"
       fx="1290.8309"
       cy="403.08481"
       cx="1290.8309"
       id="radialGradient1993-10"
       xlink:href="#linearGradient2069"
       inkscape:collect="always" />
    <clipPath
       clipPathUnits="userSpaceOnUse"
       id="clipPath2269">
      <rect
         rx="0.00031871899"
         y="373.02747"
         x="1261.7163"
         height="200"
         width="200"
         id="rect2271"
         style="display:inline;mix-blend-mode:multiply;fill:#969696;fill-opacity:1;stroke:none;stroke-linecap:round;stroke-opacity:1;stop-color:#000000" />
    </clipPath>
    <pattern
       patternUnits="userSpaceOnUse"
       width="200"
       height="200"
       patternTransform="translate(1261.7163,373.02747)"
       id="pattern2273">
      <g
         clip-path="url(#clipPath2269)"
         id="g2267"
         transform="translate(-1261.7163,-373.02747)">
        <rect
           style="fill:#969696;fill-opacity:1;stroke:none;stroke-linecap:round;stroke-opacity:1;stop-color:#000000"
           id="rect1956"
           width="200"
           height="200"
           x="1261.7163"
           y="373.02744"
           rx="0.00031871899" />
        <rect
           rx="0.00031871899"
           y="373.02747"
           x="1261.7163"
           height="200"
           width="200"
           id="rect1956-9"
           style="display:inline;mix-blend-mode:normal;fill:none;fill-opacity:1;stroke:#000000;stroke-width:4;stroke-linecap:round;stroke-miterlimit:4;stroke-dasharray:none;stroke-opacity:1;filter:url(#filter1973);stop-color:#000000" />
        <circle
           style="fill:url(#radialGradient1993);fill-opacity:1;stroke:none;stroke-width:4;stroke-linecap:round;stroke-miterlimit:4;stroke-dasharray:none;stroke-opacity:1;stop-color:#000000"
           id="path1977"
           cx="1284.7919"
           cy="396.10297"
           r="8.8482943" />
        <circle
           r="8.8482943"
           cy="396.10297"
           cx="1438.6409"
           id="path1977-8"
           style="display:inline;mix-blend-mode:normal;fill:url(#radialGradient1993-1);fill-opacity:1;stroke:none;stroke-width:4;stroke-linecap:round;stroke-miterlimit:4;stroke-dasharray:none;stroke-opacity:1;stop-color:#000000" />
        <circle
           r="8.8482943"
           cy="549.9519"
           cx="1438.6409"
           id="path1977-6"
           style="display:inline;mix-blend-mode:normal;fill:url(#radialGradient1993-4);fill-opacity:1;stroke:none;stroke-width:4;stroke-linecap:round;stroke-miterlimit:4;stroke-dasharray:none;stroke-opacity:1;stop-color:#000000" />
        <circle
           r="8.8482943"
           cy="549.9519"
           cx="1284.7919"
           id="path1977-0"
           style="display:inline;mix-blend-mode:normal;fill:url(#radialGradient1993-10);fill-opacity:1;stroke:none;stroke-width:4;stroke-linecap:round;stroke-miterlimit:4;stroke-dasharray:none;stroke-opacity:1;stop-color:#000000" />
      </g>
    </pattern>
    <radialGradient
       inkscape:collect="always"
       xlink:href="#linearGradient2069"
       id="radialGradient4054-8"
       gradientUnits="userSpaceOnUse"
       gradientTransform="translate(-199.61736,-124.94992)"
       cx="1290.8309"
       cy="403.08481"
       fx="1290.8309"
       fy="403.08481"
       r="8.8482943" />
    <radialGradient
       r="8.8482943"
       fy="403.08481"
       fx="1290.8309"
       cy="403.08481"
       cx="1290.8309"
       gradientTransform="translate(-831.18075,0.44767391)"
       gradientUnits="userSpaceOnUse"
       id="radialGradient4054-8-3"
       xlink:href="#linearGradient2069"
       inkscape:collect="always" />
    <radialGradient
       inkscape:collect="always"
       xlink:href="#linearGradient2069"
       id="radialGradient4054-8-3-0"
       gradientUnits="userSpaceOnUse"
       gradientTransform="translate(-510.19702,560.78293)"
       cx="1290.8309"
       cy="403.08481"
       fx="1290.8309"
       fy="403.08481"
       r="8.8482943" />
    <radialGradient
       inkscape:collect="always"
       xlink:href="#linearGradient2069"
       id="radialGradient4054-8-3-6"
       gradientUnits="userSpaceOnUse"
       gradientTransform="translate(-791.05783,70.489586)"
       cx="1290.8309"
       cy="403.08481"
       fx="1290.8309"
       fy="403.08481"
       r="8.8482943" />
    <radialGradient
       r="8.8482943"
       fy="403.08481"
       fx="1290.8309"
       cy="403.08481"
       cx="1290.8309"
       gradientTransform="translate(-750.93485,140.53149)"
       gradientUnits="userSpaceOnUse"
       id="radialGradient4054-8-3-6-7"
       xlink:href="#linearGradient2069"
       inkscape:collect="always" />
    <radialGradient
       inkscape:collect="always"
       xlink:href="#linearGradient2069"
       id="radialGradient4054-8-3-6-7-3"
       gradientUnits="userSpaceOnUse"
       gradientTransform="translate(-710.81185,210.57336)"
       cx="1290.8309"
       cy="403.08481"
       fx="1290.8309"
       fy="403.08481"
       r="8.8482943" />
    <radialGradient
       r="8.8482943"
       fy="403.08481"
       fx="1290.8309"
       cy="403.08481"
       cx="1290.8309"
       gradientTransform="translate(-670.68885,280.61525)"
       gradientUnits="userSpaceOnUse"
       id="radialGradient4054-8-3-6-7-3-2"
       xlink:href="#linearGradient2069"
       inkscape:collect="always" />
    <radialGradient
       r="8.8482943"
       fy="403.08481"
       fx="1290.8309"
       cy="403.08481"
       cx="1290.8309"
       gradientTransform="translate(-630.56588,350.65718)"
       gradientUnits="userSpaceOnUse"
       id="radialGradient4054-8-3-6-7-3-6"
       xlink:href="#linearGradient2069"
       inkscape:collect="always" />
    <radialGradient
       r="8.8482943"
       fy="403.08481"
       fx="1290.8309"
       cy="403.08481"
       cx="1290.8309"
       gradientTransform="translate(-590.44294,420.69909)"
       gradientUnits="userSpaceOnUse"
       id="radialGradient4054-8-3-6-7-3-9"
       xlink:href="#linearGradient2069"
       inkscape:collect="always" />
    <radialGradient
       r="8.8482943"
       fy="403.08481"
       fx="1290.8309"
       cy="403.08481"
       cx="1290.8309"
       gradientTransform="translate(-550.31996,490.741)"
       gradientUnits="userSpaceOnUse"
       id="radialGradient4054-8-3-6-7-3-5"
       xlink:href="#linearGradient2069"
       inkscape:collect="always" />
  </defs>
  <sodipodi:namedview
     inkscape:snap-smooth-nodes="true"
     inkscape:object-paths="false"
     inkscape:snap-intersection-paths="true"
     inkscape:snap-center="false"
     inkscape:document-rotation="0"
     pagecolor="#ffffff"
     bordercolor="#666666"
     borderopacity="1"
     objecttolerance="10"
     gridtolerance="10"
     guidetolerance="10"
     inkscape:pageopacity="0"
     inkscape:pageshadow="2"
     inkscape:window-width="1920"
     inkscape:window-height="1016"
     id="namedview1045"
     showgrid="false"
     inkscape:zoom="1.4579814"
     inkscape:cx="493.26192"
     inkscape:cy="506.97917"
     inkscape:window-x="0"
     inkscape:window-y="0"
     inkscape:window-maximized="1"
     inkscape:current-layer="layer3"
     inkscape:snap-object-midpoints="true" />
  <desc
     id="desc993">shipFinSmall.blend, (Blender 2.81 (sub 16))</desc>
  <g
     inkscape:groupmode="layer"
     id="layer3"
     inkscape:label="Texture">
    <circle
       r="8.8482943"
       cy="278.13489"
       cx="1091.2135"
       id="circle4044-4"
       style="display:inline;mix-blend-mode:multiply;fill:url(#radialGradient4054-8);fill-opacity:1;stroke:none;stroke-width:15.1181;stroke-linecap:round;stroke-miterlimit:4;stroke-dasharray:none;stroke-opacity:1;stop-color:#000000" />
    <circle
       style="display:inline;mix-blend-mode:multiply;fill:url(#radialGradient4054-8-3);fill-opacity:1;stroke:none;stroke-width:15.1181;stroke-linecap:round;stroke-miterlimit:4;stroke-dasharray:none;stroke-opacity:1;stop-color:#000000"
       id="circle4044-4-3"
       cx="459.65012"
       cy="403.5325"
       r="8.8482943" />
    <circle
       r="8.8482943"
       cy="963.86774"
       cx="780.63391"
       id="circle4044-4-3-0"
       style="display:inline;mix-blend-mode:multiply;fill:url(#radialGradient4054-8-3-0);fill-opacity:1;stroke:none;stroke-width:15.1181;stroke-linecap:round;stroke-miterlimit:4;stroke-dasharray:none;stroke-opacity:1;stop-color:#000000" />
    <circle
       r="8.8482943"
       cy="473.5744"
       cx="499.7731"
       id="circle4044-4-3-8"
       style="display:inline;mix-blend-mode:multiply;fill:url(#radialGradient4054-8-3-6);fill-opacity:1;stroke:none;stroke-width:15.1181;stroke-linecap:round;stroke-miterlimit:4;stroke-dasharray:none;stroke-opacity:1;stop-color:#000000" />
    <circle
       style="display:inline;mix-blend-mode:multiply;fill:url(#radialGradient4054-8-3-6-7);fill-opacity:1;stroke:none;stroke-width:15.1181;stroke-linecap:round;stroke-miterlimit:4;stroke-dasharray:none;stroke-opacity:1;stop-color:#000000"
       id="circle4044-4-3-8-2"
       cx="539.89606"
       cy="543.61633"
       r="8.8482943" />
    <circle
       r="8.8482943"
       cy="613.6582"
       cx="580.01904"
       id="circle4044-4-3-8-2-2"
       style="display:inline;mix-blend-mode:multiply;fill:url(#radialGradient4054-8-3-6-7-3);fill-opacity:1;stroke:none;stroke-width:15.1181;stroke-linecap:round;stroke-miterlimit:4;stroke-dasharray:none;stroke-opacity:1;stop-color:#000000" />
    <circle
       r="8.8482943"
       style="display:inline;mix-blend-mode:multiply;fill:url(#radialGradient4054-8-3-6-7-3-2);fill-opacity:1;stroke:none;stroke-width:15.1181;stroke-linecap:round;stroke-miterlimit:4;stroke-dasharray:none;stroke-opacity:1;stop-color:#000000"
       id="circle4044-4-3-8-2-2-3"
       cx="620.14203"
       cy="683.70013" />
    <circle
       style="display:inline;mix-blend-mode:multiply;fill:url(#radialGradient4054-8-3-6-7-3-6);fill-opacity:1;stroke:none;stroke-width:15.1181;stroke-linecap:round;stroke-miterlimit:4;stroke-dasharray:none;stroke-opacity:1;stop-color:#000000"
       id="circle4044-4-3-8-2-2-31"
       cx="660.26501"
       cy="753.742"
       r="8.8482943" />
    <circle
       style="display:inline;mix-blend-mode:multiply;fill:url(#radialGradient4054-8-3-6-7-3-9);fill-opacity:1;stroke:none;stroke-width:15.1181;stroke-linecap:round;stroke-miterlimit:4;stroke-dasharray:none;stroke-opacity:1;stop-color:#000000"
       id="circle4044-4-3-8-2-2-4"
       cx="700.38794"
       cy="823.78394"
       r="8.8482943" />
    <circle
       style="display:inline;mix-blend-mode:multiply;fill:url(#radialGradient4054-8-3-6-7-3-5);fill-opacity:1;stroke:none;stroke-width:15.1181;stroke-linecap:round;stroke-miterlimit:4;stroke-dasharray:none;stroke-opacity:1;stop-color:#000000"
       id="circle4044-4-3-8-2-2-1"
       cx="740.51093"
       cy="893.82587"
       r="8.8482943" />
  </g>
  <g
     sodipodi:insensitive="true"
     inkscape:groupmode="layer"
     id="layer2"
     inkscape:label="Color"
     style="display:inline;mix-blend-mode:multiply">
    <rect
       style="fill:#ebebeb;fill-opacity:1;stroke:none;stroke-linecap:round;stop-color:#000000"
       id="rect1080"
       width="932.46326"
       height="663.75092"
       x="39.23933"
       y="351.08063"
       rx="0.00031871899" />
    <rect
       style="fill:#828282;fill-opacity:1;stroke:none;stroke-linecap:round;stop-color:#000000"
       id="rect1082"
       width="546.28442"
       height="80.780449"
       x="69.946609"
       y="34.159527"
       rx="0.00031871899" />
    <rect
       style="fill:#828282;fill-opacity:1;stroke:none;stroke-linecap:round;stop-color:#000000"
       id="rect1084"
       width="783.48401"
       height="65.388916"
       x="69.946609"
       y="115.05035"
       rx="0.00031871899" />
    <rect
       style="fill:#828282;fill-opacity:1;stroke:none;stroke-linecap:round;stop-color:#000000"
       id="rect1086"
       width="758.46912"
       height="90.446037"
       x="52.036358"
       y="177.04729"
       rx="0.00031871899" />
    <rect
       style="fill:#828282;fill-opacity:1;stroke:none;stroke-linecap:round;stop-color:#000000"
       id="rect1088"
       width="316.78604"
       height="78.886848"
       x="69.443443"
       y="257.01917"
       rx="0.00031871899" />
    <rect
       style="fill:url(#pattern2273);stroke:none"
       width="200"
       height="200"
       x="1261.7163"
       y="373.02747"
       id="rect2282" />
  </g>
  <g
     sodipodi:insensitive="true"
     inkscape:groupmode="layer"
     id="layer4"
     inkscape:label="EdgeHighlights"
     style="display:none;mix-blend-mode:normal">
    <path
       id="path1154"
       style="fill:#c0c0c0;fill-opacity:1;stroke:none;stroke-width:1px;stroke-linecap:butt;stroke-linejoin:miter;stroke-opacity:1;filter:url(#filter1584)"
       d="m 70.521484,363.2168 c -8.919861,0.001 -15.631285,8.12727 -13.947265,16.88672 l 117.734371,611.8496 h 14.46289 L 70.521484,377.41992 H 300.89453 l 354.13672,614.5332 h 14.2168 c 0.004,-2.36797 -0.58942,-4.79883 -1.91016,-7.09179 L 313.20117,370.32812 c -2.53607,-4.39992 -7.22816,-7.11122 -12.30664,-7.11132 z" />
    <path
       id="path1188"
       style="fill:#c0c0c0;fill-opacity:1;stroke:none;stroke-width:0.947238px;stroke-linecap:butt;stroke-linejoin:miter;stroke-opacity:1;filter:url(#filter1936)"
       d="m 113.85156,273.03125 -4.90429,4.9043 v 39.8457 l 4.90429,4.9043 h 195.55078 l 44.13672,-12.87305 4.9043,-6.74414 v -12.25977 l -4.9043,-6.74414 -44.13672,-11.0332 z m -1.22656,4.9043 h 193.71289 l 44.75,11.64648 v 14.71289 l -44.75,13.48633 H 112.625 Z"
       transform="matrix(1.049411,0,0,1.0620295,-11.547109,-18.476003)" />
    <rect
       style="display:inline;mix-blend-mode:multiply;fill:#000000;fill-opacity:1;stroke:none;stroke-linecap:round;stroke-opacity:1;filter:url(#filter1630);stop-color:#000000"
       id="rect1608"
       width="495.61768"
       height="8.6585693"
       x="174.58875"
       y="990.11584"
       rx="0.00031871899" />
    <path
       id="rect1645-2"
       style="display:inline;mix-blend-mode:normal;fill:#bdbdbd;fill-opacity:1;stroke:none;stroke-width:1;stroke-linecap:round;stroke-opacity:1;filter:url(#filter1948);stop-color:#000000"
       d="m 745.79,186.56189 -641.1492,0.002 V 191.476 H 745.79 v 39.91406 H 104.6408 v 4.91407 H 745.79 v 0.49414 h 0.002 6.80273 v -50.23638 h -1.74805 -5.05468 z"
       sodipodi:nodetypes="ccccccccccccccc" />
    <rect
       style="display:inline;mix-blend-mode:multiply;fill:#000000;fill-opacity:1;stroke:none;stroke-width:0.839974;stroke-linecap:round;stroke-opacity:1;filter:url(#filter1856);stop-color:#000000"
       id="rect1668"
       width="6.4733739"
       height="27.582766"
       x="104.67386"
       y="132.061"
       rx="0.00031871899"
       transform="matrix(1,0,0,1.417324,0,-61.657714)" />
    <rect
       style="display:inline;mix-blend-mode:multiply;fill:#000000;fill-opacity:1;stroke:none;stroke-width:0.899468;stroke-linecap:round;stroke-opacity:1;filter:url(#filter1852);stop-color:#000000"
       id="rect1670"
       width="5.6273675"
       height="48.761471"
       x="97.352982"
       y="186.564"
       rx="0.00031871899"
       transform="matrix(1,0,0,1.23603,0,-48.730565)" />
    <path
       id="rect1091"
       style="fill:#bcbcbc;fill-opacity:1;stroke:none;stroke-width:1;stroke-linecap:round;filter:url(#filter1952);stop-color:#000000"
       d="m 113.21982,132.06055 v 7.35351 h 693.1962 v 12.86914 h -693.1962 v 0.002 7.35156 0.002 h 693.1962 v 0.33008 h 0.002 6.80273 v -27.9082 h -4.17968 z"
       sodipodi:nodetypes="ccccccccccccccc" />
    <path
       d="m 959.14006,1006.0481 c 8.9198,-10e-4 15.6313,-8.12725 13.9472,-16.8867 L 855.35294,377.3118 H 840.89005 L 959.14006,991.845 H 728.767 L 374.63025,377.3118 h -14.2168 c 0,2.36797 0.5894,4.79883 1.9102,7.09179 L 716.46036,998.9368 c 2.53607,4.3999 7.22816,7.1112 12.30664,7.1113 z"
       style="display:inline;mix-blend-mode:multiply;fill:#c0c0c0;fill-opacity:1;stroke:none;stroke-width:1px;stroke-linecap:butt;stroke-linejoin:miter;stroke-opacity:1;filter:url(#filter1580)"
       id="path1154-5" />
    <rect
       rx="0.00031871899"
       y="370.27444"
       x="360.41345"
       height="8.6585693"
       width="495.61768"
       id="rect1608-6"
       style="display:inline;mix-blend-mode:multiply;fill:#000000;fill-opacity:1;stroke:none;stroke-linecap:round;stroke-opacity:1;filter:url(#filter1626);stop-color:#000000" />
  </g>
  <g
     id="layer1"
     inkscape:label="Layout"
     sodipodi:insensitive="true"
     style="display:inline;opacity:0.417236"
     inkscape:groupmode="layer">
    <polygon
       stroke="#000000"
       stroke-width="1"
       fill="#cccccc"
       fill-opacity="0.25"
       points="306.338,317.781 351.088,304.295 351.088,289.582 306.338,277.935 "
       id="polygon995" />
    <polygon
       stroke="#000000"
       stroke-width="1"
       fill="#cccccc"
       fill-opacity="0.25"
       points="117.384,54.137 541.102,54.137 541.102,101.49 117.384,101.49 112.465,96.57 112.465,58.442 "
       id="polygon997" />
    <polygon
       stroke="#000000"
       stroke-width="1"
       fill="#cccccc"
       fill-opacity="0.25"
       points="807.03,152.896 807.03,139.415 109.031,139.415 109.031,152.897 "
       id="polygon999" />
    <polygon
       stroke="#000000"
       stroke-width="1"
       fill="#cccccc"
       fill-opacity="0.25"
       points="771.051,991.845 728.767,991.845 374.564,377.811 416.848,377.811 "
       id="polygon1001" />
    <polygon
       stroke="#000000"
       stroke-width="1"
       fill="#cccccc"
       fill-opacity="0.25"
       points="306.338,277.935 112.625,277.935 112.625,317.781 306.338,317.781 "
       id="polygon1003" />
    <polygon
       stroke="#000000"
       stroke-width="1"
       fill="#cccccc"
       fill-opacity="0.25"
       points="958.571,991.845 771.051,991.845 416.848,377.811 840.299,377.811 "
       id="polygon1005" />
    <polygon
       stroke="#000000"
       stroke-width="1"
       fill="#cccccc"
       fill-opacity="0.25"
       points="583.535,88.576 541.102,101.49 541.102,54.137 583.535,64.591 588.455,70.741 588.455,82.426 "
       id="polygon1007" />
    <polygon
       stroke="#000000"
       stroke-width="1"
       fill="#cccccc"
       fill-opacity="0.25"
       points="745.79,231.391 745.79,191.476 101.009,191.476 101.009,231.391 "
       id="polygon1009" />
    <polygon
       stroke="#000000"
       stroke-width="1"
       fill="#cccccc"
       fill-opacity="0.25"
       points="258.006,377.42 70.521,377.42 188.771,991.953 612.756,991.953 "
       id="polygon1011" />
    <polygon
       stroke="#000000"
       stroke-width="1"
       fill="#cccccc"
       fill-opacity="0.25"
       points="108.947,317.781 113.851,322.685 112.625,317.781 "
       id="polygon1013" />
    <polygon
       stroke="#000000"
       stroke-width="1"
       fill="#cccccc"
       fill-opacity="0.25"
       points="112.625,277.935 113.851,273.031 108.947,277.935 "
       id="polygon1015" />
    <polygon
       stroke="#000000"
       stroke-width="1"
       fill="#cccccc"
       fill-opacity="0.25"
       points="351.088,304.295 353.54,309.812 358.444,303.069 "
       id="polygon1017" />
    <polygon
       stroke="#000000"
       stroke-width="1"
       fill="#cccccc"
       fill-opacity="0.25"
       points="358.444,290.808 353.54,284.065 351.088,289.582 "
       id="polygon1019" />
    <polygon
       stroke="#000000"
       stroke-width="1"
       fill="#cccccc"
       fill-opacity="0.25"
       points="745.79,191.476 745.79,186.563 101.009,186.564 101.009,191.476 "
       id="polygon1021" />
    <polygon
       stroke="#000000"
       stroke-width="1"
       fill="#cccccc"
       fill-opacity="0.25"
       points="101.009,231.391 101.009,236.304 745.79,236.304 745.79,231.391 "
       id="polygon1023" />
    <polygon
       stroke="#000000"
       stroke-width="1"
       fill="#cccccc"
       fill-opacity="0.25"
       points="112.625,277.935 108.947,277.935 108.947,317.781 112.625,317.781 "
       id="polygon1025" />
    <polygon
       stroke="#000000"
       stroke-width="1"
       fill="#cccccc"
       fill-opacity="0.25"
       points="112.625,317.781 113.851,322.685 309.403,322.685 306.338,317.781 "
       id="polygon1027" />
    <polygon
       stroke="#000000"
       stroke-width="1"
       fill="#cccccc"
       fill-opacity="0.25"
       points="306.338,277.935 309.403,273.031 113.851,273.031 112.625,277.935 "
       id="polygon1029" />
    <polygon
       stroke="#000000"
       stroke-width="1"
       fill="#cccccc"
       fill-opacity="0.25"
       points="109.031,132.061 109.031,139.415 807.03,139.415 806.417,132.061 "
       id="polygon1031" />
    <polygon
       stroke="#000000"
       stroke-width="1"
       fill="#cccccc"
       fill-opacity="0.25"
       points="109.031,152.897 109.031,159.638 806.417,159.638 807.03,152.896 "
       id="polygon1033" />
    <polygon
       stroke="#000000"
       stroke-width="1"
       fill="#cccccc"
       fill-opacity="0.25"
       points="351.088,304.295 358.444,303.069 358.444,290.808 351.088,289.582 "
       id="polygon1035" />
    <polygon
       stroke="#000000"
       stroke-width="1"
       fill="#cccccc"
       fill-opacity="0.25"
       points="351.088,289.582 353.54,284.065 309.403,273.031 306.338,277.935 "
       id="polygon1037" />
    <polygon
       stroke="#000000"
       stroke-width="1"
       fill="#cccccc"
       fill-opacity="0.25"
       points="353.54,309.812 351.088,304.295 306.338,317.781 309.403,322.685 "
       id="polygon1039" />
    <polygon
       stroke="#000000"
       stroke-width="1"
       fill="#cccccc"
       fill-opacity="0.25"
       points="655.032,991.953 300.894,377.42 258.006,377.42 612.756,991.953 "
       id="polygon1041" />
  </g>
  <g
     style="display:none;opacity:0.666891"
     inkscape:label="Guides"
     id="layer5"
     inkscape:groupmode="layer">
    <path
       id="path996"
       d="m 459.65012,377.811 v 25.72149 h -27.96478"
       style="fill:none;stroke:#000000;stroke-width:1px;stroke-linecap:butt;stroke-linejoin:miter;stroke-opacity:1" />
    <path
       style="opacity:0.666891;fill:none;stroke:#000000;stroke-width:1px;stroke-linecap:butt;stroke-linejoin:miter;stroke-opacity:1"
       d="m 754.91242,963.86773 h 25.72149 v 27.96478"
       id="path996-7" />
    <path
       sodipodi:nodetypes="ccccccccc"
       id="path1039"
       d="m 459.65012,403.5325 40.12297,70.04191 40.12298,70.0419 40.12297,70.0419 40.12298,70.04191 40.12297,70.0419 40.12297,70.04191 40.12298,70.04191 40.12297,70.0419"
       style="fill:none;stroke:#000000;stroke-width:1.00157;stroke-linecap:butt;stroke-linejoin:miter;stroke-miterlimit:4;stroke-dasharray:none;stroke-opacity:1;marker-mid:url(#DotM)" />
  </g>
</svg>
